{
    "assets": [
        {
            "id": 5,
            "src": "fff2f1d1-7171-494b-9b6c-58913cfa6c97.png",
            "type": "texture"
        },
        {
            "id": 6,
            "src": "c05bc7ee-a3a3-4ebc-b48e-287e2ee7d654.png",
            "type": "texture"
        },
        {
            "id": 7,
            "src": "345a8ec9-c72e-48c9-936b-7192312c4b3a.png",
            "type": "texture"
        },
        {
            "id": 9,
            "src": "components/f422919b-48be-4781-9596-068d87a99f7b.png",
            "type": "texture"
        },
        {
            "id": 10,
            "src": "components/6d291bbf-a763-432e-9c51-9d3d55232249.png",
            "type": "texture"
        }
    ]
}