{
    "joints": {
        "components": [
            {
                "components": [
                    {
                        "id": "Foot",
                        "in": [
                            1.055329353578629,
                            1.267895486935867
                        ],
                        "out": [
                            [
                                1.055329353578629,
                                1.267895486935867
                            ],
                            "ANY"
                        ],
                        "texture": 75
                    }
                ],
                "id": "Lower Leg",
                "in": [
                    0.9649815713205645,
                    1.267895486935867
                ],
                "out": [
                    [
                        0.9649815713205645,
                        1.267895486935867
                    ],
                    "ANY"
                ],
                "texture": 74
            }
        ],
        "id": "Upper Leg",
        "in": [
            0.2853964528729839,
            1.267895486935867
        ],
        "out": [
            [
                0.8306963520665323,
                1.267895486935867
            ],
            "ANY"
        ],
        "texture": 73
    },
    "textures": [
        {
            "component": "Upper Leg",
            "id": 73
        },
        {
            "component": "Lower Leg",
            "id": 74
        },
        {
            "component": "Foot",
            "id": 75
        }
    ]
}