{
    "joints": [
        {
            "component": "Torso",
            "joint": {
                "child": "Torso",
                "parent": "IN"
            },
            "percentages": {
                "x": -0.9041196761592742,
                "y": 1.41753919239905
            }
        },
        {
            "component": "Torso",
            "joint": {
                "child": "Neck",
                "parent": "Torso"
            },
            "percentages": {
                "x": -0.3175048828125,
                "y": 1.275021377672209
            }
        },
        {
            "component": "Torso",
            "joint": {
                "child": "Left Arm",
                "parent": "Torso"
            },
            "percentages": {
                "x": 0.018731886340725805,
                "y": 1.41753919239905
            }
        },
        {
            "component": "Torso",
            "joint": {
                "child": "Right Arm",
                "parent": "Torso"
            },
            "percentages": {
                "x": 0.5250677293346774,
                "y": 1.41753919239905
            }
        }
    ],
    "textures": []
}