{
    "joints": {
        "id": "Neck",
        "in": [
            0.22491258190524194,
            1.263144893111639
        ],
        "out": [
            [
                0.5978176978326613,
                1.263144893111639
            ],
            "ANY",
            [
                1.147764144405242,
                1.263144893111639
            ],
            "ANY",
            [
                1.6540999873991935,
                1.263144893111639
            ],
            "ANY"
        ],
        "texture": ""
    },
    "textures": []
}